\relax 
\providecommand\hyper@newdestlabel[2]{}
\providecommand\HyperFirstAtBeginDocument{\AtBeginDocument}
\HyperFirstAtBeginDocument{\ifx\hyper@anchor\@undefined
\global\let\oldcontentsline\contentsline
\gdef\contentsline#1#2#3#4{\oldcontentsline{#1}{#2}{#3}}
\global\let\oldnewlabel\newlabel
\gdef\newlabel#1#2{\newlabelxx{#1}#2}
\gdef\newlabelxx#1#2#3#4#5#6{\oldnewlabel{#1}{{#2}{#3}}}
\AtEndDocument{\ifx\hyper@anchor\@undefined
\let\contentsline\oldcontentsline
\let\newlabel\oldnewlabel
\fi}
\fi}
\global\let\hyper@last\relax 
\gdef\HyperFirstAtBeginDocument#1{#1}
\providecommand*\HyPL@Entry[1]{}
\HyPL@Entry{0<</S/D>>}
\@writefile{toc}{\contentsline {section}{\numberline {1}Education}{1}{section.1}\protected@file@percent }
\@writefile{toc}{\contentsline {section}{\numberline {2}Computer Skills}{1}{section.2}\protected@file@percent }
\@writefile{toc}{\contentsline {section}{\numberline {3}Other Skills}{1}{section.3}\protected@file@percent }
\@writefile{toc}{\contentsline {section}{\numberline {4}Software Engineer at Sentryo (2016 -- Now)}{1}{section.4}\protected@file@percent }
\@writefile{toc}{\contentsline {section}{\numberline {5}Prior Work Experience}{1}{section.5}\protected@file@percent }
\@writefile{toc}{\contentsline {section}{\numberline {6}Hobbies}{1}{section.6}\protected@file@percent }
